C:\Users\Diana\Desktop\grpc_demo\src\main\java\src\main\java\GRPCClient.java
C:\Users\Diana\Desktop\grpc_demo\src\main\java\src\main\java\UserService.java
C:\Users\Diana\Desktop\grpc_demo\src\main\java\src\main\java\User.java
C:\Users\Diana\Desktop\grpc_demo\src\main\java\src\main\java\userGrpc.java
C:\Users\Diana\Desktop\grpc_demo\src\main\java\src\main\java\GRPCServer.java
